^C:\USERS\MAGSHIMIM\DOCUMENTS\MAGSHIMIM\C++\LESSON6\DEBUGWORKSHOP\IMAGESANDWORDS\DEBUG\IMAGES.OBJ
C:\USERS\MAGSHIMIM\DOCUMENTS\MAGSHIMIM\C++\LESSON6\DEBUGWORKSHOP\DEBUG\IMAGESANDWORDS.EXE
C:\USERS\MAGSHIMIM\DOCUMENTS\MAGSHIMIM\C++\LESSON6\DEBUGWORKSHOP\IMAGESANDWORDS\DEBUG\IMAGESANDWORDS.ILK
C:\USERS\MAGSHIMIM\DOCUMENTS\MAGSHIMIM\C++\LESSON6\DEBUGWORKSHOP\DEBUG\IMAGESANDWORDS.PDB
